%YAML 1.1
%TAG !u! tag:unity3d.com,2011:
--- !u!1001 &8046701851313931587
PrefabInstance:
  m_ObjectHideFlags: 0
  serializedVersion: 2
  m_Modification:
    m_TransformParent: {fileID: 0}
    m_Modifications:
    - target: {fileID: 7476271173842689041, guid: be2dc47ba7cb5a94ba59a315a282267e, type: 3}
      propertyPath: m_AnchorMax.y
      value: 1
      objectReference: {fileID: 0}
    - target: {fileID: 7476271173842689041, guid: be2dc47ba7cb5a94ba59a315a282267e, type: 3}
      propertyPath: m_AnchorMin.y
      value: 1
      objectReference: {fileID: 0}
    - target: {fileID: 7476271173842689041, guid: be2dc47ba7cb5a94ba59a315a282267e, type: 3}
      propertyPath: m_AnchoredPosition.x
      value: 36.5905
      objectReference: {fileID: 0}
    - target: {fileID: 7476271173842689041, guid: be2dc47ba7cb5a94ba59a315a282267e, type: 3}
      propertyPath: m_AnchoredPosition.y
      value: -4.5415
      objectReference: {fileID: 0}
    - target: {fileID: 7476271174057036050, guid: be2dc47ba7cb5a94ba59a315a282267e, type: 3}
      propertyPath: m_AnchorMax.y
      value: 1
      objectReference: {fileID: 0}
    - target: {fileID: 7476271174057036050, guid: be2dc47ba7cb5a94ba59a315a282267e, type: 3}
      propertyPath: m_AnchorMin.y
      value: 1
      objectReference: {fileID: 0}
    - target: {fileID: 7476271174057036050, guid: be2dc47ba7cb5a94ba59a315a282267e, type: 3}
      propertyPath: m_AnchoredPosition.x
      value: 4.5415
      objectReference: {fileID: 0}
    - target: {fileID: 7476271174057036050, guid: be2dc47ba7cb5a94ba59a315a282267e, type: 3}
      propertyPath: m_AnchoredPosition.y
      value: -4.5415
      objectReference: {fileID: 0}
    - target: {fileID: 7476271174081593306, guid: be2dc47ba7cb5a94ba59a315a282267e, type: 3}
      propertyPath: m_AnchorMax.y
      value: 1
      objectReference: {fileID: 0}
    - target: {fileID: 7476271174081593306, guid: be2dc47ba7cb5a94ba59a315a282267e, type: 3}
      propertyPath: m_AnchorMin.y
      value: 1
      objectReference: {fileID: 0}
    - target: {fileID: 7476271174081593306, guid: be2dc47ba7cb5a94ba59a315a282267e, type: 3}
      propertyPath: m_AnchoredPosition.x
      value: 25.907501
      objectReference: {fileID: 0}
    - target: {fileID: 7476271174081593306, guid: be2dc47ba7cb5a94ba59a315a282267e, type: 3}
      propertyPath: m_AnchoredPosition.y
      value: -4.5415
      objectReference: {fileID: 0}
    - target: {fileID: 7476271174899417416, guid: be2dc47ba7cb5a94ba59a315a282267e, type: 3}
      propertyPath: m_Pivot.x
      value: 0.5
      objectReference: {fileID: 0}
    - target: {fileID: 7476271174899417416, guid: be2dc47ba7cb5a94ba59a315a282267e, type: 3}
      propertyPath: m_Pivot.y
      value: 0.5
      objectReference: {fileID: 0}
    - target: {fileID: 7476271174899417416, guid: be2dc47ba7cb5a94ba59a315a282267e, type: 3}
      propertyPath: m_RootOrder
      value: 0
      objectReference: {fileID: 0}
    - target: {fileID: 7476271174899417416, guid: be2dc47ba7cb5a94ba59a315a282267e, type: 3}
      propertyPath: m_AnchorMax.x
      value: 0
      objectReference: {fileID: 0}
    - target: {fileID: 7476271174899417416, guid: be2dc47ba7cb5a94ba59a315a282267e, type: 3}
      propertyPath: m_AnchorMax.y
      value: 0
      objectReference: {fileID: 0}
    - target: {fileID: 7476271174899417416, guid: be2dc47ba7cb5a94ba59a315a282267e, type: 3}
      propertyPath: m_AnchorMin.x
      value: 0
      objectReference: {fileID: 0}
    - target: {fileID: 7476271174899417416, guid: be2dc47ba7cb5a94ba59a315a282267e, type: 3}
      propertyPath: m_AnchorMin.y
      value: 0
      objectReference: {fileID: 0}
    - target: {fileID: 7476271174899417416, guid: be2dc47ba7cb5a94ba59a315a282267e, type: 3}
      propertyPath: m_SizeDelta.x
      value: 29.719
      objectReference: {fileID: 0}
    - target: {fileID: 7476271174899417416, guid: be2dc47ba7cb5a94ba59a315a282267e, type: 3}
      propertyPath: m_SizeDelta.y
      value: 36.939
      objectReference: {fileID: 0}
    - target: {fileID: 7476271174899417416, guid: be2dc47ba7cb5a94ba59a315a282267e, type: 3}
      propertyPath: m_LocalPosition.x
      value: 0
      objectReference: {fileID: 0}
    - target: {fileID: 7476271174899417416, guid: be2dc47ba7cb5a94ba59a315a282267e, type: 3}
      propertyPath: m_LocalPosition.y
      value: 0
      objectReference: {fileID: 0}
    - target: {fileID: 7476271174899417416, guid: be2dc47ba7cb5a94ba59a315a282267e, type: 3}
      propertyPath: m_LocalPosition.z
      value: 0
      objectReference: {fileID: 0}
    - target: {fileID: 7476271174899417416, guid: be2dc47ba7cb5a94ba59a315a282267e, type: 3}
      propertyPath: m_LocalRotation.w
      value: 1
      objectReference: {fileID: 0}
    - target: {fileID: 7476271174899417416, guid: be2dc47ba7cb5a94ba59a315a282267e, type: 3}
      propertyPath: m_LocalRotation.x
      value: 0
      objectReference: {fileID: 0}
    - target: {fileID: 7476271174899417416, guid: be2dc47ba7cb5a94ba59a315a282267e, type: 3}
      propertyPath: m_LocalRotation.y
      value: 0
      objectReference: {fileID: 0}
    - target: {fileID: 7476271174899417416, guid: be2dc47ba7cb5a94ba59a315a282267e, type: 3}
      propertyPath: m_LocalRotation.z
      value: 0
      objectReference: {fileID: 0}
    - target: {fileID: 7476271174899417416, guid: be2dc47ba7cb5a94ba59a315a282267e, type: 3}
      propertyPath: m_AnchoredPosition.x
      value: 0
      objectReference: {fileID: 0}
    - target: {fileID: 7476271174899417416, guid: be2dc47ba7cb5a94ba59a315a282267e, type: 3}
      propertyPath: m_AnchoredPosition.y
      value: 0
      objectReference: {fileID: 0}
    - target: {fileID: 7476271174899417416, guid: be2dc47ba7cb5a94ba59a315a282267e, type: 3}
      propertyPath: m_LocalEulerAnglesHint.x
      value: 0
      objectReference: {fileID: 0}
    - target: {fileID: 7476271174899417416, guid: be2dc47ba7cb5a94ba59a315a282267e, type: 3}
      propertyPath: m_LocalEulerAnglesHint.y
      value: 0
      objectReference: {fileID: 0}
    - target: {fileID: 7476271174899417416, guid: be2dc47ba7cb5a94ba59a315a282267e, type: 3}
      propertyPath: m_LocalEulerAnglesHint.z
      value: 0
      objectReference: {fileID: 0}
    - target: {fileID: 7476271174899417417, guid: be2dc47ba7cb5a94ba59a315a282267e, type: 3}
      propertyPath: m_Name
      value: YellowPlayerStatsUi
      objectReference: {fileID: 0}
    - target: {fileID: 7476271174899417419, guid: be2dc47ba7cb5a94ba59a315a282267e, type: 3}
      propertyPath: m_Sprite
      value: 
      objectReference: {fileID: 281887348905300457, guid: b9c94c31fcb8abc4a81ee12b1e3fcc85, type: 3}
    - target: {fileID: 7476271174899417419, guid: be2dc47ba7cb5a94ba59a315a282267e, type: 3}
      propertyPath: m_Color.b
      value: 0.19215688
      objectReference: {fileID: 0}
    - target: {fileID: 7476271174899417419, guid: be2dc47ba7cb5a94ba59a315a282267e, type: 3}
      propertyPath: m_Color.g
      value: 0.98823535
      objectReference: {fileID: 0}
    - target: {fileID: 7476271174899417419, guid: be2dc47ba7cb5a94ba59a315a282267e, type: 3}
      propertyPath: m_Color.r
      value: 1
      objectReference: {fileID: 0}
    - target: {fileID: 7476271175016584202, guid: be2dc47ba7cb5a94ba59a315a282267e, type: 3}
      propertyPath: m_AnchorMax.y
      value: 1
      objectReference: {fileID: 0}
    - target: {fileID: 7476271175016584202, guid: be2dc47ba7cb5a94ba59a315a282267e, type: 3}
      propertyPath: m_AnchorMin.y
      value: 1
      objectReference: {fileID: 0}
    - target: {fileID: 7476271175016584202, guid: be2dc47ba7cb5a94ba59a315a282267e, type: 3}
      propertyPath: m_AnchoredPosition.x
      value: 15.224501
      objectReference: {fileID: 0}
    - target: {fileID: 7476271175016584202, guid: be2dc47ba7cb5a94ba59a315a282267e, type: 3}
      propertyPath: m_AnchoredPosition.y
      value: -4.5415
      objectReference: {fileID: 0}
    - target: {fileID: 7476271175067770747, guid: be2dc47ba7cb5a94ba59a315a282267e, type: 3}
      propertyPath: m_AnchorMax.y
      value: 1
      objectReference: {fileID: 0}
    - target: {fileID: 7476271175067770747, guid: be2dc47ba7cb5a94ba59a315a282267e, type: 3}
      propertyPath: m_AnchorMin.y
      value: 1
      objectReference: {fileID: 0}
    - target: {fileID: 7476271175067770747, guid: be2dc47ba7cb5a94ba59a315a282267e, type: 3}
      propertyPath: m_AnchoredPosition.x
      value: 47.2735
      objectReference: {fileID: 0}
    - target: {fileID: 7476271175067770747, guid: be2dc47ba7cb5a94ba59a315a282267e, type: 3}
      propertyPath: m_AnchoredPosition.y
      value: -4.5415
      objectReference: {fileID: 0}
    - target: {fileID: 7476271175500537976, guid: be2dc47ba7cb5a94ba59a315a282267e, type: 3}
      propertyPath: m_SizeDelta.x
      value: 0
      objectReference: {fileID: 0}
    - target: {fileID: 7476271175500537976, guid: be2dc47ba7cb5a94ba59a315a282267e, type: 3}
      propertyPath: m_SizeDelta.y
      value: 0
      objectReference: {fileID: 0}
    m_RemovedComponents: []
  m_SourcePrefab: {fileID: 100100000, guid: be2dc47ba7cb5a94ba59a315a282267e, type: 3}
