%YAML 1.1
%TAG !u! tag:unity3d.com,2011:
--- !u!1045 &1
EditorBuildSettings:
  m_ObjectHideFlags: 0
  serializedVersion: 2
  m_Scenes:
  - enabled: 1
    path: Assets/Scenes/LobbyScene.unity
    guid: 9fc0d4010bbf28b4594072e72b8655ab
  - enabled: 1
    path: Assets/Scenes/LastOneStanding.unity
    guid: 8dfda320b024a104eb2770d2a68e97a7
  - enabled: 1
    path: Assets/Scenes/DeathMatch.unity
    guid: 1da5277eb2bd7834c97cd17db6167d8f
  m_configObjects: {}
